<?xml version="1.0" standalone="no"?>
<!DOCTYPE svg PUBLIC "-//W3C//DTD SVG 20010904//EN"
 "http://www.w3.org/TR/2001/REC-SVG-20010904/DTD/svg10.dtd">
<svg version="1.0" xmlns="http://www.w3.org/2000/svg"
 width="640.000000pt" height="640.000000pt" viewBox="0 0 640.000000 640.000000"
 preserveAspectRatio="xMidYMid meet">
<metadata>
Created by potrace 1.11, written by Peter Selinger 2001-2013
</metadata>
<g transform="translate(0.000000,640.000000) scale(0.100000,-0.100000)"
fill="#000000" stroke="none">
<path d="M0 3200 l0 -3200 1145 0 1145 0 5 28 c4 15 12 56 20 92 39 180 39
181 27 201 -9 14 -9 20 4 27 9 5 25 52 40 123 14 63 28 116 30 118 13 13 11
-16 -6 -109 -13 -76 -15 -110 -8 -124 8 -15 7 -22 -4 -30 -26 -20 -35 -53 -73
-284 l-8 -42 327 0 326 0 0 36 c0 19 10 56 22 82 l21 47 9 -27 c5 -16 14 -28
19 -28 5 0 9 -25 9 -55 l0 -55 315 0 315 0 0 56 c0 30 5 65 12 77 l12 22 7
-25 c4 -14 7 -49 8 -77 l1 -53 336 0 337 0 -6 48 c-6 45 -10 63 -36 191 -6 30
-18 65 -25 77 -11 16 -13 34 -7 70 l7 49 8 -33 c4 -18 17 -42 29 -52 12 -12
16 -20 8 -20 -9 0 -12 -12 -8 -42 9 -65 42 -235 53 -270 5 -17 61 -18 995 -18
l989 0 0 989 0 990 -310 0 c-265 1 -311 -1 -316 -14 -5 -13 -8 -13 -20 0 -23
22 -830 21 -855 -1 -15 -13 -17 -13 -22 1 -9 22 -388 23 -407 0 -10 -12 -15
-12 -35 1 -19 12 -53 14 -206 8 -160 -5 -186 -8 -200 -24 -13 -15 -19 -16 -40
-5 -15 9 -41 11 -72 8 -28 -4 -52 -2 -55 4 -8 11 -186 -1 -226 -16 -14 -6 -26
-17 -26 -25 0 -25 -26 -39 -51 -25 -15 8 -77 11 -197 10 -206 -3 -232 -10
-230 -66 1 -31 5 -35 34 -41 18 -3 55 -3 81 0 46 7 91 8 151 6 15 0 41 2 58 6
18 3 41 1 53 -5 26 -14 56 -1 56 26 0 27 33 29 37 1 2 -16 14 -26 43 -34 22
-7 32 -13 21 -13 -12 -1 -16 -6 -12 -17 4 -10 2 -13 -6 -8 -7 5 -9 0 -6 -14 4
-12 3 -22 0 -22 -8 0 -42 -57 -42 -70 0 -4 9 -10 20 -13 29 -7 27 -47 -2 -48
-17 -1 -19 -2 -5 -6 9 -2 17 -9 17 -14 0 -5 8 -9 18 -10 10 0 12 -3 4 -6 -6
-2 -10 -9 -6 -14 3 -5 1 -9 -3 -9 -5 0 -10 -12 -11 -26 -1 -15 -7 -33 -13 -40
-6 -7 -8 -18 -4 -24 3 -5 1 -10 -4 -10 -6 0 -11 5 -11 11 0 6 -11 25 -25 43
-15 20 -23 40 -19 50 9 22 -22 21 -35 -2 -6 -9 -11 -11 -11 -4 0 17 -40 15
-40 -3 0 -11 -12 -15 -47 -15 -71 0 -127 -11 -111 -21 7 -5 -25 -9 -79 -9 -72
0 -95 -4 -108 -17 -16 -15 -19 -15 -45 0 -15 10 -37 17 -48 17 -11 0 -26 9
-33 20 -15 22 -39 29 -104 32 -22 1 -34 3 -27 6 6 2 12 10 12 18 0 10 13 14
46 14 32 0 43 -3 38 -12 -4 -6 -3 -8 4 -4 6 3 34 11 64 16 35 7 59 18 70 33
14 17 18 18 18 6 0 -24 21 -38 64 -41 20 -1 40 -6 42 -10 3 -4 10 -8 15 -8 6
0 7 5 3 11 -4 8 25 10 100 7 99 -3 130 -10 89 -21 -14 -4 -12 -5 5 -6 12 0 22
4 22 9 0 6 6 10 13 9 30 -6 98 14 107 31 13 25 13 80 -1 80 -5 0 -8 4 -5 9 3
5 -3 11 -13 14 -15 4 -18 11 -14 28 5 23 5 24 -10 4 -10 -13 -12 -25 -7 -36
19 -35 -16 -99 -55 -99 -31 0 -65 40 -65 78 0 18 5 32 11 32 5 0 7 5 3 11 -5
8 -10 7 -16 -4 -5 -9 -14 -14 -21 -11 -13 5 -87 -52 -87 -67 0 -5 20 -9 45 -9
33 0 45 -4 45 -15 0 -12 -13 -15 -60 -15 -59 0 -60 0 -60 29 0 16 7 34 15 41
26 21 7 29 -63 25 -69 -5 -112 -20 -112 -40 0 -18 -44 -55 -66 -55 -30 0 -64
41 -64 77 0 19 -6 33 -16 37 -12 4 -15 2 -10 -9 3 -8 2 -14 -2 -14 -4 1 -24 1
-44 0 -35 -1 -38 -3 -38 -31 0 -29 2 -30 45 -30 33 0 45 -4 45 -15 0 -12 -13
-15 -60 -15 l-60 0 0 68 c0 74 -5 86 -36 94 -21 5 -22 1 -29 -78 -4 -46 -10
-84 -15 -84 -8 0 -20 84 -20 149 0 38 -2 43 -20 38 -11 -3 -20 0 -21 6 0 7 -4
3 -8 -8 -5 -11 -4 -25 1 -32 6 -7 8 -18 5 -25 -4 -8 -6 -7 -6 5 -1 9 -4 17 -8
17 -5 0 -7 -34 -5 -75 3 -63 1 -75 -12 -75 -9 0 -16 8 -16 19 0 11 -6 22 -12
24 -10 4 -10 6 0 6 29 2 9 21 -23 21 -33 0 -35 -2 -35 -35 0 -58 -18 -39 -22
22 -5 87 50 196 77 153 13 -21 22 1 21 47 -1 32 4 52 14 60 12 9 12 16 4 30
-13 20 -111 36 -131 21 -7 -6 -57 -5 -129 3 -92 10 -120 10 -136 0 -14 -9 -23
-9 -33 -1 -7 6 -89 13 -199 17 -173 5 -188 5 -207 -13 -19 -17 -21 -18 -30 -1
-9 15 -31 17 -207 17 -141 0 -201 -3 -210 -12 -9 -9 -12 -9 -12 0 0 17 -401
17 -418 0 -9 -9 -15 -9 -24 0 -15 15 -380 17 -408 2 -13 -7 -21 -7 -25 0 -4 7
-89 10 -237 10 -126 -1 -233 1 -236 4 -3 3 98 6 224 6 658 -1 1792 8 1802 14
7 4 9 19 5 36 l-6 30 79 0 c143 1 2037 2 2128 1 l88 -1 -6 -35 c-4 -19 -6 -35
-4 -36 2 0 465 -3 1031 -6 l1027 -5 0 2206 0 2206 -3200 0 -3200 0 0 -3200z
m2530 1280 c0 -5 -5 -10 -11 -10 -5 0 -7 5 -4 10 3 6 8 10 11 10 2 0 4 -4 4
-10z m-140 -60 c-24 -15 -36 -11 -14 4 10 8 21 12 24 10 2 -3 -2 -9 -10 -14z
m1678 -62 c15 -4 19 -2 15 8 -3 8 0 14 6 14 6 0 11 -4 11 -8 0 -5 10 -14 23
-20 21 -10 21 -11 -8 -11 -34 -1 -92 14 -115 29 -13 9 -13 11 0 20 8 5 11 10
7 10 -5 0 -5 5 -1 11 4 6 13 -1 24 -19 10 -16 27 -32 38 -34z m-1628 41 c0 -6
-8 -8 -19 -4 -11 3 -23 0 -27 -6 -4 -8 -3 -9 4 -5 7 4 12 3 12 -3 0 -20 -60
-42 -108 -39 -45 3 -46 4 -23 17 13 7 37 14 53 15 16 1 33 7 36 13 14 21 72
31 72 12z m-160 -119 c0 -5 -19 -29 -43 -53 -38 -38 -49 -44 -90 -45 -25 -1
-48 1 -51 6 -5 9 39 61 71 83 24 16 113 24 113 9z m1976 -34 c57 -50 57 -66 1
-66 -38 0 -49 6 -90 47 -26 26 -47 50 -47 54 0 3 21 6 46 5 38 -2 55 -9 90
-40z m-2113 -105 c19 -2 -40 -84 -70 -97 -38 -16 -99 -18 -108 -4 -9 14 73 98
99 102 18 3 47 2 79 -1z m2255 -48 c23 -25 39 -50 36 -55 -8 -13 -74 -9 -107
7 -29 14 -67 63 -67 86 0 5 22 9 49 9 46 0 51 -3 89 -47z m-2363 -103 c-3 -6
2 -13 11 -17 10 -4 19 -2 21 3 2 5 24 8 50 6 27 -1 114 -2 196 -2 120 1 150
-2 163 -14 16 -17 11 -36 -9 -36 -7 0 -18 -9 -25 -20 -9 -15 -19 -19 -40 -15
-15 4 -58 6 -96 5 -39 0 -74 4 -82 11 -12 10 -13 9 -8 -6 5 -13 4 -16 -4 -11
-16 10 -15 -6 2 -29 14 -19 113 -38 122 -23 3 4 14 8 25 8 26 0 15 -21 -41
-81 -27 -29 -40 -38 -40 -26 0 10 -5 14 -14 11 -11 -4 -15 -24 -15 -72 0 -118
3 -118 100 29 49 74 102 151 119 173 16 21 27 42 24 47 -3 5 0 9 5 9 6 0 11 7
11 15 0 8 -5 14 -11 13 -6 -2 -13 2 -15 7 -2 6 4 11 15 11 11 0 17 -4 15 -8
-3 -4 2 -8 10 -8 9 0 16 4 16 9 0 5 19 7 43 4 23 -3 57 -5 75 -5 28 1 32 -2
33 -26 0 -26 1 -26 9 -5 11 28 43 36 101 28 42 -6 157 -6 244 0 21 1 41 8 43
14 3 9 7 9 18 0 8 -6 14 -8 14 -5 0 4 7 0 16 -9 10 -9 23 -13 33 -9 9 3 21 6
26 5 69 -6 165 -6 165 0 0 4 12 5 28 2 25 -4 52 -5 94 -3 10 1 21 6 24 12 4 7
9 7 13 0 4 -6 26 -7 66 0 78 13 204 2 228 -20 14 -12 17 -13 12 -1 -4 12 20
14 165 11 93 -2 170 -7 170 -12 0 -5 39 -10 86 -12 82 -3 85 -2 81 18 -3 17 1
20 20 16 13 -2 23 1 23 7 0 6 19 11 45 11 35 0 52 -6 70 -24 32 -32 47 -36 62
-17 11 15 12 15 13 0 0 -12 8 -15 29 -13 22 3 33 -3 44 -19 14 -22 14 -23 -6
-23 -12 1 -25 8 -29 16 -5 10 -7 7 -8 -10 -1 -25 -1 -25 -10 -2 -5 12 -15 22
-22 21 -10 0 -10 -2 0 -6 6 -2 12 -19 12 -36 0 -39 10 -55 32 -52 15 3 15 0 1
-34 -8 -20 -20 -43 -27 -52 -11 -15 -68 -20 -82 -6 -15 15 -61 6 -121 -23 -35
-16 -63 -34 -63 -40 0 -7 7 -7 22 1 12 7 57 12 100 11 43 0 78 4 78 9 0 5 9 9
20 9 11 0 20 -5 20 -12 0 -17 -40 -98 -48 -97 -4 1 -73 1 -154 0 -146 -1 -148
-1 -178 -28 l-31 -28 170 2 170 2 -10 -26 c-29 -77 -32 -78 -132 -75 -50 2
-107 0 -126 -4 l-36 -7 35 -8 c19 -4 87 -11 150 -15 84 -5 120 -11 134 -23 18
-15 19 -15 14 12 -4 22 23 87 120 290 68 144 128 266 133 271 13 15 86 -24
124 -66 40 -43 44 -74 20 -152 -16 -53 -21 -256 -6 -256 19 0 64 54 88 106 14
31 34 102 44 158 22 119 57 226 74 226 7 0 29 -13 50 -30 21 -16 41 -30 44
-30 4 0 15 -14 25 -31 20 -34 17 -89 -7 -118 -13 -15 -47 -172 -47 -216 0 -68
-61 -186 -130 -255 -34 -34 -47 -40 -81 -40 -35 0 -47 7 -94 51 -30 28 -64 71
-76 95 -11 24 -24 44 -27 44 -16 0 -64 -103 -59 -126 2 -13 1 -24 -3 -24 -4 0
-10 -9 -13 -20 -4 -15 0 -20 16 -21 38 -2 41 -3 84 -34 27 -19 42 -36 39 -47
-2 -9 8 -24 23 -35 21 -16 38 -19 91 -15 36 2 71 9 79 16 8 6 46 11 85 11 39
1 124 5 189 9 l118 9 39 -38 c42 -41 52 -82 26 -104 -8 -7 -54 -16 -103 -22
-48 -5 -116 -12 -151 -16 l-64 -8 -37 -95 c-21 -52 -47 -115 -59 -140 -43 -94
-63 -146 -72 -184 -7 -34 -6 -41 16 -61 39 -37 27 -88 -25 -100 -22 -5 -39 0
-69 20 -32 21 -42 36 -57 84 -12 42 -16 73 -10 106 7 49 58 191 101 283 14 30
24 55 22 56 -2 2 -43 -1 -93 -5 -99 -8 -149 5 -160 42 -12 36 -31 19 -43 -37
-6 -31 -9 -61 -5 -66 3 -6 29 -8 63 -4 34 4 61 3 64 -3 4 -5 -25 -12 -68 -16
-52 -5 -76 -12 -80 -22 -10 -26 4 -33 66 -33 l61 0 -6 -41 c-3 -22 -8 -43 -11
-47 -4 -3 -37 -7 -74 -8 -59 -1 -68 -4 -79 -25 -12 -24 -12 -24 50 -27 34 -2
66 -7 70 -11 13 -13 -22 -81 -41 -81 -13 0 -13 -3 2 -19 22 -24 16 -45 -25
-89 -33 -36 -69 -50 -69 -26 0 11 -16 13 -87 9 -49 -3 -121 -12 -161 -21 -40
-9 -79 -14 -87 -11 -22 9 -46 65 -48 113 -1 24 -5 44 -8 44 -13 0 -49 -47 -42
-55 5 -4 3 -5 -3 -2 -6 3 -21 -1 -33 -9 -18 -13 -20 -22 -15 -50 l6 -34 -61 0
c-43 0 -60 3 -55 11 4 8 -1 9 -17 4 -48 -16 -95 -25 -130 -25 -46 0 -67 28
-70 95 -3 52 -21 68 -47 41 -14 -13 -14 -16 -2 -17 8 -1 2 -4 -15 -8 -27 -5
-30 -10 -33 -49 -2 -24 -9 -45 -16 -48 -20 -8 -126 -10 -126 -2 0 3 12 16 28
28 19 16 21 20 7 15 -127 -44 -203 -56 -300 -47 -98 9 -139 30 -182 97 -39 59
-43 112 -15 202 l19 58 -66 -33 c-39 -19 -117 -44 -191 -60 -101 -23 -126 -31
-128 -46 -4 -17 1 -18 39 -12 61 10 222 65 232 79 6 7 6 4 2 -8 -4 -11 -12
-46 -18 -77 l-11 -57 -126 -3 c-110 -3 -125 -5 -128 -20 -3 -16 8 -18 125 -18
l128 0 33 -61 c27 -49 30 -59 15 -50 -12 6 -101 9 -231 7 -116 -1 -215 0 -220
3 -17 12 -53 81 -47 91 14 23 35 164 25 174 -7 7 -10 -2 -10 -27 0 -49 -21
-89 -63 -121 -32 -24 -62 -89 -51 -108 3 -4 -25 -8 -62 -8 l-67 0 29 22 c50
37 50 40 3 19 -127 -54 -340 -60 -408 -12 -31 22 -31 22 -31 2 0 -36 -35 -61
-86 -61 -82 0 -284 77 -352 134 -16 15 -32 26 -35 26 -3 0 -9 -15 -12 -32 -16
-72 -57 -108 -105 -93 -20 6 -49 61 -54 103 -4 26 23 194 38 240 l8 23 -39
-24 c-56 -35 -164 -72 -274 -92 l-97 -18 -4 -71 c-3 -40 -14 -91 -25 -117 -18
-41 -25 -47 -61 -53 -53 -8 -63 -3 -89 42 -20 36 -21 41 -7 98 17 72 18 126 3
141 -17 17 -14 105 5 144 20 42 36 61 60 75 11 5 25 31 33 56 22 75 71 139
133 171 51 27 62 28 150 25 145 -5 194 -39 234 -168 8 -25 15 -39 15 -31 1 10
10 12 35 7 37 -7 36 -9 134 119 29 38 57 59 114 87 77 38 129 80 78 62 -30
-10 -94 -7 -135 6 -17 6 -49 9 -73 8 -68 -2 -113 61 -94 134 7 30 12 33 49 36
23 2 58 -4 78 -12 52 -22 123 -20 161 3 20 12 42 41 59 76 28 61 75 230 75
273 l0 25 -79 -6 c-44 -4 -96 -13 -117 -22 -57 -24 -88 -19 -118 16 -31 37
-35 97 -8 121 19 18 154 48 212 48 61 0 130 12 124 22 -3 5 15 6 44 2 38 -5
56 -2 73 10 26 18 125 23 114 6z m835 -10 c0 -5 -5 -10 -11 -10 -5 0 -7 5 -4
10 3 6 8 10 11 10 2 0 4 -4 4 -10z m300 0 c0 -5 -4 -10 -10 -10 -5 0 -10 5
-10 10 0 6 5 10 10 10 6 0 10 -4 10 -10z m1123 -12 c-16 -8 -32 -8 -55 0 -32
9 -31 10 22 10 46 1 52 -1 33 -10z m-2013 -262 c0 -3 -4 -8 -10 -11 -5 -3 -10
-1 -10 4 0 6 5 11 10 11 6 0 10 -2 10 -4z m-603 -52 c-3 -20 -9 -39 -12 -42
-12 -12 -17 9 -11 43 9 47 31 47 23 -1z m-37 -148 c-6 -20 -16 -38 -21 -42
-14 -8 1 69 15 78 17 11 19 2 6 -36z m4134 -373 c41 -44 52 -73 37 -101 -9
-16 -1 -39 40 -122 113 -232 116 -310 14 -380 -143 -99 -424 -145 -530 -88
-71 38 -107 100 -106 184 1 119 79 248 227 374 42 36 94 82 116 103 22 20 45
37 52 37 7 0 23 11 35 24 30 32 66 22 115 -31z m-2589 -777 c49 -4 93 -2 115
5 48 15 384 13 409 -3 15 -9 42 -9 117 1 86 11 196 11 349 -1 17 -1 68 3 115
9 83 10 282 4 296 -10 3 -3 -2 -21 -13 -39 -19 -33 -19 -33 -119 -40 -54 -4
-103 -8 -109 -8 -14 -2 -2209 -2 -2260 -1 -22 0 -82 4 -133 7 -92 6 -94 7
-113 38 -10 17 -19 34 -19 39 0 4 53 8 118 8 214 2 496 2 537 0 107 -3 551 11
559 19 4 4 22 2 40 -5 17 -7 67 -15 111 -19z m1223 -135 c63 -1 72 -3 72 -20
0 -10 -9 -30 -20 -43 -18 -24 -26 -25 -152 -32 -73 -4 -149 -6 -168 -6 -19 0
-442 0 -940 0 -498 1 -977 3 -1065 7 l-160 6 -28 30 c-38 41 -23 55 61 59 65
3 2256 2 2400 -1z m-2202 -449 c-20 -20 -22 -1 -3 28 10 18 12 18 15 4 2 -9
-3 -24 -12 -32z m250 3 l19 -35 18 35 c9 19 24 35 33 35 12 0 14 -17 12 -107
-2 -74 -7 -108 -15 -111 -10 -3 -13 16 -13 70 -1 63 -2 71 -14 56 -7 -10 -17
-18 -21 -18 -4 0 -14 8 -21 18 -12 15 -13 7 -14 -55 0 -58 -3 -73 -15 -73 -12
0 -15 19 -15 110 0 121 11 139 46 75z m1315 18 c1 -10 0 -53 -1 -95 -2 -73 0
-78 19 -78 12 0 21 -6 21 -16 0 -12 -10 -14 -52 -12 -30 2 -53 8 -56 16 -2 7
5 12 17 12 19 0 21 6 21 66 0 56 -2 65 -14 55 -11 -9 -16 -9 -22 1 -10 15 -15
42 -7 34 3 -3 17 4 31 14 31 25 42 25 43 3z m171 0 c28 -25 26 -148 -4 -180
-27 -29 -49 -29 -76 0 -25 27 -17 45 9 21 25 -23 53 -14 57 18 3 22 0 26 -17
21 -12 -3 -32 2 -46 11 -19 13 -25 25 -25 53 0 64 58 96 102 56z m115 -28 l2
-39 -14 28 c-18 35 -19 59 -2 54 6 -3 13 -22 14 -43z m-2307 20 c-7 -9 -15
-13 -17 -11 -7 7 7 26 19 26 6 0 6 -6 -2 -15z m2769 -11 c3 -16 1 -17 -13 -5
-19 16 -21 34 -3 29 6 -3 14 -13 16 -24z m456 16 c3 -5 2 -10 -4 -10 -5 0 -13
5 -16 10 -3 6 -2 10 4 10 5 0 13 -4 16 -10z m-2337 -182 c0 -7 3 -22 5 -33 3
-11 -1 -31 -8 -45 -7 -14 -19 -44 -26 -67 -7 -24 -16 -43 -20 -43 -8 0 -2 97
7 112 3 4 0 8 -6 8 -6 0 -2 13 9 29 12 16 21 34 21 40 0 15 16 14 18 -1z
m-491 -15 c0 -22 -16 -45 -28 -37 -5 3 -2 16 7 30 19 29 21 29 21 7z m1961
-79 c0 -41 -2 -44 -7 -19 -4 17 -13 39 -19 51 -6 11 -8 31 -5 43 l6 22 12 -24
c7 -13 12 -46 13 -73z m-2461 49 c-9 -9 -20 -14 -24 -10 -3 4 2 14 13 21 25
19 33 10 11 -11z m2941 15 c7 -7 12 -23 12 -37 l0 -26 -20 30 c-11 17 -20 33
-20 38 0 11 15 8 28 -5z m992 -19 c0 -6 -7 -6 -20 1 -11 6 -20 15 -20 21 0 6
7 6 20 -1 11 -6 20 -15 20 -21z m-4910 11 c-8 -5 -19 -10 -25 -10 -5 0 -3 5 5
10 8 5 20 10 25 10 6 0 3 -5 -5 -10z m500 6 c0 -2 -7 -7 -16 -10 -8 -3 -12 -2
-9 4 6 10 25 14 25 6z m3910 -11 c7 -8 8 -15 2 -15 -5 0 -15 7 -22 15 -7 8 -8
15 -2 15 5 0 15 -7 22 -15z m-2215 -5 c-3 -5 -14 -10 -23 -9 -14 0 -13 2 3 9
27 11 27 11 20 0z m842 -6 c-3 -3 -12 -4 -19 -1 -8 3 -5 6 6 6 11 1 17 -2 13
-5z m-934 -11 c-7 -2 -19 -2 -25 0 -7 3 -2 5 12 5 14 0 19 -2 13 -5z m64 -9
c-3 -3 -12 -4 -19 -1 -8 3 -5 6 6 6 11 1 17 -2 13 -5z m1314 -198 c12 -9 13
-16 4 -33 l-12 -23 -11 25 c-7 14 -11 49 -11 78 l2 52 7 -44 c4 -24 13 -49 21
-55z m-1047 60 c-8 -20 22 -38 69 -41 23 -2 121 -6 218 -10 172 -7 178 -6 198
14 l21 21 34 -26 c32 -26 32 -28 16 -44 -10 -10 -21 -33 -25 -51 l-7 -33 -19
37 c-11 21 -29 39 -42 42 -12 4 -68 1 -122 -5 -55 -7 -145 -14 -199 -17 -79
-3 -106 -9 -128 -25 -28 -20 -30 -20 -51 -2 -12 11 -26 25 -30 32 -4 6 -24 12
-43 12 -69 0 -227 23 -208 31 11 4 76 10 144 14 68 3 132 11 142 16 10 5 18
21 18 35 0 14 4 23 10 19 5 -3 7 -12 4 -19z m-507 -84 c-8 -10 -22 -33 -30
-52 l-15 -35 -1 42 c-1 23 -5 44 -10 47 -5 4 3 20 17 36 l26 30 14 -26 c12
-22 11 -28 -1 -42z m2610 -5 c0 -16 -2 -16 -19 0 -10 9 -18 24 -18 35 0 17 1
17 18 0 10 -10 19 -26 19 -35z m-4203 8 c-11 -8 -20 -10 -23 -4 -1 6 5 16 15
24 11 8 20 10 23 4 1 -6 -5 -16 -15 -24z m1054 -2 c-6 -7 -14 -13 -19 -13 -13
0 -11 24 3 38 16 16 31 -7 16 -25z m2616 14 c6 -9 7 -19 3 -23 -9 -9 -37 15
-37 33 0 18 20 12 34 -10z m-4174 4 c0 -10 -24 -21 -43 -21 -7 0 -3 7 7 15 22
17 36 19 36 6z m1050 4 c0 -6 -38 -45 -43 -45 -9 0 -3 36 7 42 13 9 36 10 36
3z m4180 -16 c0 -11 -27 -12 -34 0 -3 4 -3 11 0 14 8 8 34 -3 34 -14z m-2077
-224 c3 -22 2 -58 -1 -80 l-7 -40 -22 43 c-19 39 -20 49 -10 118 l10 75 13
-38 c6 -21 14 -56 17 -78z m-527 20 c-5 -14 51 -25 138 -26 38 0 46 -3 31 -9
-13 -6 8 -9 65 -10 139 -2 61 -17 -100 -19 -111 -1 -150 -5 -168 -17 -19 -13
-26 -13 -39 -2 -9 7 -28 18 -42 25 l-26 11 25 1 c21 1 26 6 28 31 1 16 12 40
25 52 l22 23 23 -24 c13 -13 21 -29 18 -36z m-600 -84 c-8 -9 -18 -37 -21 -61
-11 -93 -17 -127 -25 -141 -20 -31 -20 4 0 85 11 48 18 92 14 97 -5 9 13 84
35 139 3 8 7 -11 9 -44 2 -42 -1 -63 -12 -75z m1678 34 c10 -16 14 -34 10 -51
l-6 -25 -19 29 c-10 17 -15 40 -12 51 7 26 7 26 27 -4z m-2805 -31 c-13 -26
-29 -32 -29 -11 0 18 34 59 39 46 2 -6 -2 -22 -10 -35z m560 -10 c-11 -14 -13
-14 -21 0 -6 10 -2 22 9 36 l18 21 3 -21 c2 -12 -2 -28 -9 -36z m2801 42 c0
-8 5 -16 11 -18 5 -2 7 -11 4 -20 -6 -15 -9 -15 -21 -3 -16 16 -19 55 -4 55 6
0 10 -6 10 -14z m579 -40 c-12 -13 -39 13 -39 38 0 20 1 20 24 -4 13 -14 20
-29 15 -34z m-4479 31 c0 -14 -39 -41 -48 -33 -6 7 27 46 40 46 4 0 8 -6 8
-13z m5036 -24 c-8 -8 -36 10 -36 25 0 13 3 12 20 -3 11 -10 18 -20 16 -22z
m-2235 -188 c0 -44 4 -87 9 -95 5 -8 29 -20 52 -27 39 -10 40 -11 13 -12 -16
-1 -35 -5 -42 -9 -15 -9 -18 -125 -5 -217 5 -38 6 -77 1 -86 -11 -21 24 -59
54 -59 21 0 21 -1 -3 -13 -21 -11 -25 -20 -28 -67 -1 -30 -5 -66 -8 -79 -5
-23 -5 -23 -19 -4 -8 11 -16 44 -19 73 -3 29 -10 58 -16 64 -13 13 -139 11
-250 -4 -41 -6 -128 -10 -194 -9 -133 1 -141 -2 -149 -64 -3 -21 -13 -45 -23
-52 -28 -21 -55 17 -47 68 7 53 -8 67 -76 68 -31 1 -81 4 -111 9 -45 6 -31 7
72 9 115 1 128 3 138 20 6 13 7 28 1 44 -18 47 -16 92 6 123 23 33 24 91 1
108 -7 6 -12 19 -10 28 4 22 -33 41 -83 43 -215 6 -218 7 -52 20 87 7 162 16
167 21 12 12 15 55 7 80 -18 52 -17 92 2 116 23 28 40 17 50 -34 6 -25 2 -44
-16 -77 -49 -94 -39 -99 193 -102 361 -4 350 -5 365 22 8 16 8 32 -2 66 -16
59 -19 113 -6 138 10 18 10 18 19 -5 5 -14 9 -61 9 -105z m561 96 c2 -17 1
-28 -4 -25 -8 5 -12 54 -4 54 2 0 6 -13 8 -29z m-2315 -53 c-3 -8 -6 -5 -6 6
-1 11 2 17 5 13 3 -3 4 -12 1 -19z m2363 -143 c6 -8 13 -42 15 -74 2 -33 8
-75 13 -93 15 -48 24 -134 13 -123 -5 6 -11 28 -14 50 -11 81 -28 160 -42 189
-7 17 -16 67 -19 111 l-5 80 13 -62 c7 -34 19 -69 26 -78z m580 36 c0 -10 11
-27 24 -40 16 -15 22 -29 18 -46 -5 -27 -22 -34 -22 -10 0 9 -6 18 -14 21 -9
4 -15 19 -14 42 0 20 -5 50 -11 65 -6 16 -11 34 -11 40 1 18 30 -53 30 -72z
m-2370 -56 c6 -7 2 -15 -9 -22 -10 -6 -21 -28 -25 -47 -10 -53 -31 -59 -22 -6
4 27 2 47 -5 56 -7 9 -8 14 -1 14 6 0 19 19 29 42 l18 41 3 -34 c2 -19 8 -39
12 -44z m-1219 -13 c-6 -2 -17 -10 -24 -17 -11 -11 -15 -10 -24 4 -9 14 -5 21
18 37 16 10 30 26 31 34 0 8 3 -1 5 -20 3 -20 0 -36 -6 -38z m594 -5 c-8 -4
-15 -16 -15 -25 0 -12 -4 -10 -13 8 -11 22 -11 27 5 41 10 9 18 23 19 30 0 8
5 1 10 -16 6 -22 5 -31 -6 -38z m3644 13 c15 -1 14 -1 -1 -10 -20 -12 -44 -4
-52 17 -11 27 6 38 22 15 8 -12 22 -22 31 -22z m-4839 15 c0 -17 -36 -38 -51
-29 -7 4 1 14 18 25 34 23 33 23 33 4z m4854 -91 c3 -8 2 -12 -4 -9 -6 3 -10
10 -10 16 0 14 7 11 14 -7z m-584 -92 c7 -23 11 -45 7 -48 -3 -3 -11 14 -17
37 -6 24 -15 54 -20 67 -6 13 -10 28 -10 35 1 16 24 -38 40 -91z m-3139 -8
c-5 -16 -10 -21 -10 -12 -1 18 10 51 15 45 2 -1 -1 -16 -5 -33z m-640 -30
c-13 -25 -25 -43 -28 -40 -3 2 2 17 11 33 8 15 18 36 22 46 4 10 9 15 12 12 3
-3 -5 -26 -17 -51z m616 -36 c-3 -8 -6 -5 -6 6 -1 11 2 17 5 13 3 -3 4 -12 1
-19z m-18 -61 c-5 -21 -7 -46 -4 -57 4 -14 -2 -27 -19 -44 -14 -13 -26 -33
-26 -45 0 -12 -4 -29 -9 -39 -18 -35 -30 -69 -47 -127 -10 -33 -24 -69 -31
-80 -13 -19 -13 -19 -13 3 0 12 4 22 9 22 5 0 17 33 26 73 10 39 21 76 26 82
5 5 9 19 9 32 0 13 5 23 11 23 6 0 9 16 8 40 -2 29 2 45 19 63 12 13 22 28 22
34 0 18 20 66 25 61 2 -2 0 -21 -6 -41z m3230 -4 c7 -21 22 -47 31 -58 15 -16
17 -28 11 -55 -6 -30 -8 -32 -14 -14 -4 12 -16 29 -27 39 -10 9 -17 22 -14 29
3 7 1 31 -5 54 -11 52 0 55 18 5z m-3889 -56 c0 -15 -9 -29 -25 -37 -14 -7
-26 -20 -26 -29 -1 -9 -4 -2 -8 14 -5 24 -1 34 19 52 32 29 40 28 40 0z m4589
-24 c1 -1 0 -6 -4 -12 -9 -15 -54 20 -48 37 4 10 10 9 27 -5 11 -10 23 -19 25
-20z m-635 -123 c5 -23 4 -30 -2 -20 -14 23 -25 77 -14 65 6 -5 13 -26 16 -45z
m38 -110 c6 -37 -7 -27 -16 13 -4 17 -3 26 2 23 6 -3 12 -19 14 -36z"/>
<path d="M2860 3940 c-9 -6 -10 -10 -3 -10 6 0 15 5 18 10 8 12 4 12 -15 0z"/>
<path d="M3398 3943 c7 -3 16 -2 19 1 4 3 -2 6 -13 5 -11 0 -14 -3 -6 -6z"/>
<path d="M3831 3924 c0 -11 3 -14 6 -6 3 7 2 16 -1 19 -3 4 -6 -2 -5 -13z"/>
<path d="M4205 3920 c-4 -6 -16 -8 -28 -5 -17 5 -19 4 -7 -4 11 -8 -37 -11
-167 -11 l-183 0 12 -25 c6 -14 21 -26 32 -27 12 -1 28 -2 36 -4 8 -1 55 -2
103 -3 49 -1 86 -5 83 -9 -2 -4 4 -8 14 -8 10 0 16 4 14 8 -8 13 11 9 25 -4
11 -10 13 -10 7 0 -4 6 -4 13 1 13 4 1 17 3 29 4 11 1 38 15 60 30 21 15 30
25 19 21 -20 -6 -20 -6 -1 9 23 18 18 19 -21 5 -26 -9 -27 -9 -9 5 17 13 17
15 4 15 -9 0 -20 -5 -23 -10z"/>
<path d="M2400 3916 c0 -2 7 -7 16 -10 8 -3 12 -2 9 4 -6 10 -25 14 -25 6z"/>
<path d="M2661 3890 c3 -50 -14 -88 -71 -155 -32 -38 -68 -88 -79 -111 -12
-23 -28 -45 -36 -48 -8 -3 -15 -10 -15 -16 0 -6 4 -9 10 -5 10 6 -26 -82 -43
-103 -6 -7 -16 -11 -23 -8 -8 3 -18 -3 -24 -14 -14 -26 -13 -30 7 -23 13 5 15
2 11 -14 -3 -12 -2 -39 2 -62 l7 -40 -42 6 c-28 3 -45 1 -50 -7 -11 -19 15
-31 59 -27 34 2 41 -1 64 -33 51 -69 67 -74 112 -30 l30 29 -37 67 c-60 111
-60 114 61 364 58 119 104 225 104 236 -1 13 -9 19 -25 19 -19 0 -24 -5 -22
-25z"/>
<path d="M2900 3885 c23 -40 51 -75 35 -45 -6 12 -5 13 6 3 10 -10 10 -16 1
-25 -7 -7 -12 -25 -12 -40 0 -16 -7 -31 -15 -34 -8 -4 -15 -13 -15 -21 0 -8 5
-11 10 -8 13 8 3 -63 -17 -119 -7 -21 -13 -54 -13 -73 0 -28 3 -34 16 -29 9 3
17 6 19 6 12 0 69 98 81 141 15 51 42 187 48 244 4 28 2 30 -35 33 -29 2 -39
-1 -39 -12 0 -9 -8 -14 -20 -13 -13 1 -19 6 -15 16 4 11 3 12 -10 1 -12 -10
-18 -10 -32 1 -12 10 -11 3 7 -26z"/>
<path d="M3223 3895 c14 -29 20 -30 40 -10 8 8 18 11 21 7 4 -3 4 1 0 11 -6
17 -7 17 -20 0 -13 -17 -15 -17 -28 0 -19 25 -26 21 -13 -8z"/>
<path d="M1966 3778 c-11 -56 -13 -79 -5 -84 12 -7 11 -65 -1 -84 -5 -8 -15
-15 -22 -15 -7 0 -14 -10 -16 -22 -3 -19 1 -23 21 -23 28 0 37 -16 37 -68 l0
-37 -46 4 c-32 2 -49 -1 -55 -10 -19 -30 -9 -37 49 -36 51 0 58 -2 69 -24 7
-13 13 -36 13 -51 l0 -28 -107 0 c-87 0 -112 -4 -130 -18 l-23 -17 28 -2 c15
-1 78 -2 140 -2 109 0 112 -1 121 -24 5 -13 24 -36 42 -51 38 -32 72 -29 106
10 l22 24 -33 33 c-54 53 -94 215 -105 427 l-6 115 -47 3 c-43 3 -48 1 -52
-20z"/>
<path d="M3530 3790 c-14 -4 -40 -10 -58 -15 -39 -9 -37 -29 3 -33 16 -2 34
-11 41 -20 12 -16 16 -17 325 -23 53 -1 102 2 108 5 20 13 12 -10 -15 -40 -14
-16 -33 -39 -41 -52 -15 -22 -22 -23 -124 -21 -114 1 -132 -2 -122 -27 5 -13
7 -13 14 -2 5 7 9 9 9 3 0 -6 36 -9 95 -7 l95 3 0 -63 0 -63 -107 0 c-71 0
-108 -4 -110 -12 -3 -8 9 -10 39 -7 24 2 73 1 111 -4 46 -6 67 -5 67 2 1 6 12
-18 26 -53 13 -35 30 -71 37 -79 9 -12 6 -12 -14 1 -14 10 -29 14 -32 10 -4
-4 -32 -5 -62 -4 -34 1 -55 -2 -55 -8 0 -7 29 -11 78 -12 99 -1 106 -2 150
-33 59 -40 205 -68 311 -59 56 5 77 11 102 33 l32 26 -79 0 c-166 0 -305 62
-353 157 -13 26 -28 81 -34 121 -10 67 -9 76 12 119 12 25 45 70 72 99 27 29
49 53 49 55 0 5 -35 -11 -59 -26 -18 -12 -57 -16 -162 -17 -75 -1 -143 -5
-149 -9 -7 -4 -4 4 5 18 9 15 14 31 11 36 -7 11 -176 11 -216 1z"/>
<path d="M3176 3642 c-2 -4 -6 -25 -7 -47 -4 -38 -3 -39 31 -46 19 -4 55 -10
80 -12 58 -7 140 -42 140 -61 0 -8 -10 -22 -22 -30 -36 -25 2 -19 44 7 46 29
80 71 72 90 -9 24 -102 55 -198 66 -49 6 -99 17 -112 26 -13 8 -25 11 -28 7z"/>
<path d="M2730 3417 c-12 -26 -26 -50 -31 -53 -5 -3 -9 -16 -9 -30 0 -18 17
-42 57 -80 50 -48 62 -54 99 -54 27 0 51 7 68 21 32 25 33 35 4 42 -33 9 -102
83 -137 146 l-29 54 -22 -46z"/>
<path d="M3165 3420 c-3 -5 -1 -10 4 -10 6 0 11 5 11 10 0 6 -2 10 -4 10 -3 0
-8 -4 -11 -10z"/>
<path d="M3095 3310 c-9 -27 3 -99 21 -127 25 -39 130 -26 239 28 72 37 96 58
40 34 -22 -9 -67 -19 -101 -22 -56 -5 -62 -4 -78 18 -9 13 -16 38 -16 56 0 33
0 33 -49 33 -41 0 -51 -3 -56 -20z"/>
<path d="M4508 3275 c-16 -13 -35 -28 -44 -33 -13 -7 -14 -13 -5 -30 21 -39
48 -46 86 -22 40 25 45 53 16 88 -23 27 -20 27 -53 -3z"/>
<path d="M1650 3151 c0 -3 11 -13 23 -21 18 -13 57 -16 219 -15 119 0 198 -4
198 -10 0 -5 5 -4 12 3 17 17 39 15 32 -3 -4 -8 -17 -18 -30 -21 -13 -3 -24
-10 -24 -14 0 -4 -16 -20 -37 -36 -34 -26 -42 -28 -144 -28 -59 -1 -111 -4
-115 -9 -17 -17 21 -32 94 -37 l77 -5 -70 -59 c-39 -32 -72 -64 -74 -70 -2 -6
-18 -34 -36 -61 -30 -45 -38 -51 -72 -53 -43 -3 -173 -42 -173 -53 0 -17 86
-60 158 -79 123 -31 119 -33 123 53 8 145 85 254 317 447 40 33 88 91 62 75
-11 -7 -180 -7 -437 -1 -57 1 -103 0 -103 -3z m66 -507 c-3 -9 -6 -22 -6 -30
0 -21 -18 -17 -25 6 -8 24 1 40 22 40 10 0 13 -6 9 -16z"/>
<path d="M2362 3136 c17 -18 190 -16 194 2 1 7 0 8 -3 2 -2 -5 -11 -10 -19
-10 -9 0 -13 3 -11 8 3 4 -19 7 -49 7 -30 0 -54 -4 -54 -9 0 -5 -6 -4 -12 1
-7 5 -23 10 -35 11 -18 0 -20 -2 -11 -12z"/>
<path d="M3912 3142 c-30 -2 -50 -7 -47 -13 9 -13 125 -10 158 4 28 12 28 12
-15 12 -24 0 -67 -1 -96 -3z"/>
<path d="M2605 3130 c-3 -5 3 -10 14 -10 12 0 21 5 21 10 0 6 -6 10 -14 10 -8
0 -18 -4 -21 -10z"/>
<path d="M3385 3105 c-16 -14 -54 -44 -84 -67 -96 -75 -151 -134 -151 -158 0
-21 4 -19 36 18 44 52 129 133 153 147 10 6 31 21 47 35 56 48 55 70 -1 25z"/>
<path d="M2631 3070 c-61 -40 -88 -76 -107 -144 -12 -39 -23 -60 -36 -64 -23
-6 -23 -10 2 -63 16 -37 20 -40 20 -18 0 37 46 122 71 134 15 6 29 29 40 63
10 29 28 66 40 83 11 16 19 32 17 34 -2 2 -23 -9 -47 -25z"/>
<path d="M3722 2999 c-13 -5 -28 -6 -33 -3 -5 3 -9 2 -8 -3 1 -4 -1 -16 -5
-25 -5 -11 6 -42 29 -90 21 -40 40 -86 44 -103 7 -32 2 -30 135 -50 57 -9 46
-22 -16 -20 -72 1 -88 -2 -88 -19 0 -9 31 -13 107 -15 59 -1 110 -4 112 -7 2
-2 -4 -13 -14 -24 -23 -25 -14 -25 33 -1 55 28 89 68 76 89 -18 30 -95 60
-172 67 -97 9 -130 19 -163 51 -25 24 -27 32 -23 82 2 30 9 61 15 68 13 16 4
17 -29 3z"/>
<path d="M2400 2990 c0 -11 0 -11 48 -15 19 -2 31 2 30 7 -5 13 -78 20 -78 8z"/>
<path d="M2490 2990 c0 -5 5 -10 10 -10 6 0 10 5 10 10 0 6 -4 10 -10 10 -5 0
-10 -4 -10 -10z"/>
<path d="M4496 2993 c-3 -4 -93 -7 -199 -8 -139 -1 -204 -5 -235 -15 -51 -18
-49 -33 4 -40 61 -8 306 -5 333 4 23 8 24 7 17 -25 -3 -18 -10 -37 -14 -41 -4
-4 -58 -8 -119 -9 -102 -2 -113 -4 -113 -21 0 -16 10 -18 78 -19 146 -2 146
-2 130 -53 -17 -50 -27 -56 -84 -56 -47 0 -54 -2 -54 -20 0 -20 17 -26 63 -22
26 3 31 -21 12 -57 l-16 -31 36 0 c25 0 39 6 49 23 37 56 136 333 136 379 0
18 -11 23 -24 11z"/>
<path d="M954 2959 c-24 -12 -58 -86 -44 -94 11 -7 112 18 187 47 51 19 54 21
39 36 -20 20 -150 27 -182 11z"/>
<path d="M2800 2957 c-14 -7 -26 -20 -28 -30 -3 -13 4 -17 27 -17 16 0 41 -4
55 -10 27 -10 127 17 133 37 10 29 -139 45 -187 20z"/>
<path d="M1526 2919 c-37 -41 -63 -85 -55 -94 12 -12 169 47 169 64 0 15 -51
71 -65 71 -7 0 -29 -18 -49 -41z"/>
<path d="M2247 2898 c-10 -5 -25 -7 -33 -4 -16 6 -99 -47 -107 -68 -3 -7 9
-10 37 -8 41 4 42 3 69 -46 15 -27 27 -52 27 -56 0 -3 -51 -6 -113 -6 -111 0
-137 -7 -137 -35 0 -8 39 -11 135 -10 109 2 135 0 135 -11 0 -18 4 -18 49 6
38 19 51 36 51 68 0 18 -75 168 -88 176 -4 2 -15 0 -25 -6z"/>
<path d="M3497 2899 c-9 -6 -25 -8 -35 -5 -10 4 -32 -7 -57 -29 -24 -21 -34
-34 -24 -35 8 0 20 5 25 10 8 8 18 -1 35 -27 32 -49 69 -136 69 -162 0 -19 2
-19 45 6 73 40 74 51 21 159 -26 52 -50 94 -54 94 -4 0 -15 -5 -25 -11z"/>
<path d="M3275 2690 c3 -5 17 -10 30 -10 13 0 27 5 30 10 4 6 -8 10 -30 10
-22 0 -34 -4 -30 -10z"/>
<path d="M3360 2690 c0 -5 18 -10 40 -10 22 0 40 5 40 10 0 6 -18 10 -40 10
-22 0 -40 -4 -40 -10z"/>
<path d="M3450 2689 c0 -5 5 -7 10 -4 6 3 10 8 10 11 0 2 -4 4 -10 4 -5 0 -10
-5 -10 -11z"/>
<path d="M3481 2684 c0 -11 3 -14 6 -6 3 7 2 16 -1 19 -3 4 -6 -2 -5 -13z"/>
<path d="M5665 2901 c-3 -6 -19 -10 -35 -8 -60 5 -240 -191 -240 -261 0 -60
185 -49 322 20 81 40 84 59 27 167 -43 83 -61 102 -74 82z"/>
<path d="M3874 1766 c-9 -23 -1 -48 19 -60 22 -14 38 7 35 44 -3 29 -44 41
-54 16z"/>
<path d="M3497 703 c-2 -2 -91 -5 -197 -8 -199 -5 -213 -8 -203 -46 4 -13 0
-19 -10 -19 -38 0 -49 -78 -16 -111 17 -17 19 -23 8 -31 -11 -7 -11 -11 -1
-15 20 -8 14 -40 -13 -57 -30 -20 -33 -51 -6 -66 12 -6 127 -10 304 -10 332 0
317 -4 297 89 -7 35 -10 79 -6 106 9 54 -10 144 -33 163 -13 11 -114 15 -124
5z"/>
<path d="M2743 1943 c-13 -3 -23 -10 -23 -18 0 -7 -4 -15 -9 -17 -4 -1 -11
-24 -15 -49 l-7 -46 68 -2 c37 -1 70 -7 74 -12 4 -7 9 -5 12 4 5 13 18 15 64
10 32 -3 62 -9 67 -14 5 -4 18 -3 29 3 12 6 40 8 68 4 l49 -7 0 40 c0 47 -18
61 -78 61 -76 0 -162 13 -155 23 4 6 1 7 -6 3 -7 -5 -24 -3 -39 2 -37 14 -73
19 -99 15z"/>
<path d="M2601 1733 c-14 -31 0 -53 22 -35 8 7 17 9 21 5 3 -4 -1 8 -10 25 -8
18 -17 32 -18 32 -2 0 -8 -12 -15 -27z"/>
<path d="M3020 1685 c-26 -32 13 -81 44 -56 23 20 20 46 -8 59 -19 8 -27 8
-36 -3z"/>
<path d="M3444 1665 c-7 -17 12 -45 31 -45 7 0 18 7 25 15 10 12 10 18 0 30
-16 19 -49 19 -56 0z"/>
<path d="M2998 1533 c7 -3 16 -2 19 1 4 3 -2 6 -13 5 -11 0 -14 -3 -6 -6z"/>
<path d="M3040 1500 c0 -5 5 -10 11 -10 5 0 7 5 4 10 -3 6 -8 10 -11 10 -2 0
-4 -4 -4 -10z"/>
</g>
</svg>
